C:\Users\Csicsek Ciprian\Workspace\kotlinProjects\agrokotlin\target\generated-sources\kapt\compile\com\example\demo\domain\Gep_.java
C:\Users\Csicsek Ciprian\Workspace\kotlinProjects\agrokotlin\target\generated-sources\kapt\compile\com\example\demo\domain\AbstractDomain_.java
C:\Users\Csicsek Ciprian\Workspace\kotlinProjects\agrokotlin\target\generated-sources\kapt\compile\com\example\demo\domain\GepTipus_.java
C:\Users\Csicsek Ciprian\Workspace\kotlinProjects\agrokotlin\target\generated-sources\kapt\compile\com\example\demo\domain\Megye_.java
C:\Users\Csicsek Ciprian\Workspace\kotlinProjects\agrokotlin\target\generated-sources\kapt\compile\com\example\demo\domain\Dolgozo_.java
C:\Users\Csicsek Ciprian\Workspace\kotlinProjects\agrokotlin\target\generated-sources\kapt\compile\com\example\demo\domain\Marka_.java
C:\Users\Csicsek Ciprian\Workspace\kotlinProjects\agrokotlin\target\generated-sources\kapt\compile\com\example\demo\domain\Beosztas_.java
C:\Users\Csicsek Ciprian\Workspace\kotlinProjects\agrokotlin\target\generated-sources\kapt\compile\com\example\demo\domain\Telephely_.java
